{
  "prepare_queue": {
    "installed": [],
    "uninstalled": []
  },
  "config_munge": {
    "files": {}
  },
  "installed_plugins": {
    "com-badrit-base64": {
      "PACKAGE_NAME": "cl.pall.parquecopiapo"
    },
    "cordova-plugin-camera": {
      "PACKAGE_NAME": "cl.pall.parquecopiapo"
    },
    "cordova-plugin-device": {
      "PACKAGE_NAME": "cl.pall.parquecopiapo"
    },
    "cordova-plugin-filechooser": {
      "PACKAGE_NAME": "cl.pall.parquecopiapo"
    },
    "cordova-plugin-filepath": {
      "PACKAGE_NAME": "cl.pall.parquecopiapo"
    },
    "cordova-plugin-ionic-keyboard": {
      "PACKAGE_NAME": "cl.pall.parquecopiapo"
    },
    "cordova-plugin-ionic-webview": {
      "PACKAGE_NAME": "cl.pall.parquecopiapo"
    },
    "cordova-plugin-network-information": {
      "PACKAGE_NAME": "cl.pall.parquecopiapo"
    },
    "cordova-plugin-splashscreen": {
      "PACKAGE_NAME": "cl.pall.parquecopiapo"
    },
    "cordova-plugin-statusbar": {
      "PACKAGE_NAME": "cl.pall.parquecopiapo"
    },
    "cordova-plugin-whitelist": {
      "PACKAGE_NAME": "cl.pall.parquecopiapo"
    },
    "cordova-sqlite-storage": {
      "PACKAGE_NAME": "cl.pall.parquecopiapo"
    }
  },
  "dependent_plugins": {}
}